﻿[
  {
    "PaymentTypeID": 1,
    "CardTypeCode": "AM",
    "PaymentType": "American Express",
    "Description": "% Increase or Decrease",
    "PaymentRule": "PCT",
    "CardChargesDesc": "CC Chrg @ {0}%",
    "Price": 3.50,
    "IsActive": 1
  },
  {
    "PaymentTypeID": 2,
    "CardTypeCode": "EL",
    "PaymentType": "Electron",
    "Description": "Flat Rate Value",
    "PaymentRule": "FRV",
    "CardChargesDesc": "CC Chrg Flat Rate @ {0}",
    "Price": 2.50,
    "IsActive": 1
  },
  {
    "PaymentTypeID": 3,
    "CardTypeCode": "SWI",
    "PaymentType": "Maestro",
    "Description": "Flat Rate Value",
    "PaymentRule": "FRV",
    "CardChargesDesc": "CC Chrg Flat Rate @ {0}",
    "Price":2.50,
    "IsActive": 1
  },
  {
    "PaymentTypeID": 4,
    "CardTypeCode": "MC",
    "PaymentType": "Mastercard",
    "Description": "% Increase or Decrease",
    "PaymentRule": "PCT",
    "CardChargesDesc": "CC Chrg @ {0}%",
    "Price": 2.50,
    "IsActive": 1
  },
  {
    "PaymentTypeID": 5,
    "CardTypeCode": "MCD",
    "PaymentType": "Mastercard Debit",
    "Description": "Flat Rate Value",
    "PaymentRule": "FRV",
    "CardChargesDesc": "CC Chrg Flat Rate @ {0}",
    "Price": 2.00,
    "IsActive": 1
  },
  {
    "PaymentTypeID": 6,
    "CardTypeCode": "SO",
    "PaymentType": "Solo",
    "Description": "Flat Rate Value",
    "PaymentRule": "FRV",
    "CardChargesDesc": "CC Chrg Flat Rate @ {0}",
    "Price": 2.00,
    "IsActive": 1
  },
  {
    "PaymentTypeID": 7,
    "CardTypeCode": "VIS",
    "PaymentType": "Visa",
    "Description": "% Increase or Decrease",
    "PaymentRule": "PCT",
    "CardChargesDesc": "CC Chrg @ {0}%",
    "Price": 2.50,
    "IsActive": 1
  },
  {
    "PaymentTypeID": 8,
    "CardTypeCode": "VISD",
    "PaymentType": "Visa Debit",
    "Description": "Flat Rate Value",
    "PaymentRule": "FRV",
    "CardChargesDesc": "CC chrg Flat Rate @ {0}",
    "Price": 2.00,
    "IsActive": 1
  }  
]