[
  {
    "Name": "Taj",
    "Price": 32.0,
    "Star": 3.0,
    "Desc": "Good",
    "Trating": 4.0,
    "StartDate": "2015-07-07T00:00:00",
    "Days": 7.0,
    "CheckingTime": 10.0
  },
  {
    "Name": "Kolam",
    "Price": 67.0,
    "Star": 3.0,
    "Desc": "ultimate",
    "Trating": 3.0,
    "StartDate": "2015-07-07T00:00:00",
    "Days": 7.0,
    "CheckingTime": 10.0
  },
  {
    "Name": "LK",
    "Price": 45.0,
    "Star": 3.0,
    "Desc": "Best",
    "Trating": 5.0,
    "StartDate": "2015-07-07T00:00:00",
    "Days": 7.0,
    "CheckingTime": 9.0
  },
  {
    "Name": "Lalit",
    "Price": 56.0,
    "Star": 3.0,
    "Desc": "Wow",
    "Trating": 3.0,
    "StartDate": "2015-07-07T00:00:00",
    "Days": 7.0,
    "CheckingTime": 10.0
  },
  {
    "Name": "POU",
    "Price": 23.0,
    "Star": 3.0,
    "Desc": "Good",
    "Trating": 2.0,
    "StartDate": "2015-07-07T00:00:00",
    "Days": 7.0,
    "CheckingTime": 9.0
  },
  {
    "Name": "SAK",
    "Price": 23.0,
    "Star": 3.0,
    "Desc": "ultimate",
    "Trating": 4.0,
    "StartDate": "2015-07-07T00:00:00",
    "Days": 7.0,
    "CheckingTime": 8.0
  },
  {
    "Name": "TOO",
    "Price": 67.0,
    "Star": 3.0,
    "Desc": "Best",
    "Trating": 5.0,
    "StartDate": "2015-07-07T00:00:00",
    "Days": 7.0,
    "CheckingTime": 12.0
  },
  {
    "Name": "PAM",
    "Price": 67.0,
    "Star": 3.0,
    "Desc": "Wow",
    "Trating": 3.0,
    "StartDate": "2015-07-07T00:00:00",
    "Days": 7.0,
    "CheckingTime": 10.0
  },
  {
    "Name": "Ksl",
    "Price": 55.0,
    "Star": 3.0,
    "Desc": "Good",
    "Trating": 2.0,
    "StartDate": "2015-07-07T00:00:00",
    "Days": 7.0,
    "CheckingTime": 11.0
  },
  {
    "Name": "LOP",
    "Price": 66.0,
    "Star": 3.0,
    "Desc": "ultimate",
    "Trating": 5.0,
    "StartDate": "2015-07-07T00:00:00",
    "Days": 7.0,
    "CheckingTime": 12.0
  },
  {
    "Name": "KAYA",
    "Price": 76.0,
    "Star": 3.0,
    "Desc": "Best",
    "Trating": 3.0,
    "StartDate": "2015-07-07T00:00:00",
    "Days": 7.0,
    "CheckingTime": 10.0
  },
  {
    "Name": "PAYA",
    "Price": 34.0,
    "Star": 3.0,
    "Desc": "Wow",
    "Trating": 2.0,
    "StartDate": "2015-07-07T00:00:00",
    "Days": 7.0,
    "CheckingTime": 13.0
  },
  {
    "Name": "LSD",
    "Price": 78.0,
    "Star": 3.0,
    "Desc": "Good",
    "Trating": 1.0,
    "StartDate": "2015-07-07T00:00:00",
    "Days": 7.0,
    "CheckingTime": 11.0
  },
  {
    "Name": "ASDS",
    "Price": 23.0,
    "Star": 3.0,
    "Desc": "ultimate",
    "Trating": 4.0,
    "StartDate": "2015-07-07T00:00:00",
    "Days": 7.0,
    "CheckingTime": 10.0
  },
  {
    "Name": "DSS",
    "Price": 99.0,
    "Star": 3.0,
    "Desc": "Best",
    "Trating": 4.0,
    "StartDate": "2015-07-07T00:00:00",
    "Days": 7.0,
    "CheckingTime": 10.0
  },
  {
    "Name": "ADA",
    "Price": 88.0,
    "Star": 3.0,
    "Desc": "Wow",
    "Trating": 4.0,
    "StartDate": "2015-07-07T00:00:00",
    "Days": 7.0,
    "CheckingTime": 12.0
  },
  {
    "Name": "WER",
    "Price": 44.0,
    "Star": 3.0,
    "Desc": "Good",
    "Trating": 3.0,
    "StartDate": "2015-07-07T00:00:00",
    "Days": 7.0,
    "CheckingTime": 8.0
  },
  {
    "Name": "RTE",
    "Price": 33.0,
    "Star": 3.0,
    "Desc": "ultimate",
    "Trating": 2.0,
    "StartDate": "2015-07-07T00:00:00",
    "Days": 7.0,
    "CheckingTime": 8.0
  },
  {
    "Name": "QQQ",
    "Price": 24.0,
    "Star": 3.0,
    "Desc": "Best",
    "Trating": 4.0,
    "StartDate": "2015-07-07T00:00:00",
    "Days": 7.0,
    "CheckingTime": 9.0
  },
  {
    "Name": "SSS",
    "Price": 43.0,
    "Star": 3.0,
    "Desc": "Good",
    "Trating": 5.0,
    "StartDate": "2015-07-07T00:00:00",
    "Days": 7.0,
    "CheckingTime": 8.0
  },
  {
    "Name": "TTT",
    "Price": 55.0,
    "Star": 3.0,
    "Desc": "ultimate",
    "Trating": 3.0,
    "StartDate": "2015-07-07T00:00:00",
    "Days": 7.0,
    "CheckingTime": 9.0
  },
  {
    "Name": "AAA",
    "Price": 90.0,
    "Star": 3.0,
    "Desc": "Best",
    "Trating": 3.0,
    "StartDate": "2015-07-07T00:00:00",
    "Days": 7.0,
    "CheckingTime": 10.0
  },
  {
    "Name": "JJJ",
    "Price": 32.0,
    "Star": 3.0,
    "Desc": "Wow",
    "Trating": 4.0,
    "StartDate": "2015-07-07T00:00:00",
    "Days": 7.0,
    "CheckingTime": 10.0
  }
]