[
  {
    "Name": "Jet",
    "Code": "Jet2090",
    "StartTime": 2.0,
    "EndTime": 3.0,
    "Fare": 33.0
  },
  {
    "Name": "SpiceJet",
    "Code": "Spice0339",
    "StartTime": 2.3,
    "EndTime": 3.3,
    "Fare": 45.0
  },
  {
    "Name": "Air India",
    "Code": "Air02921",
    "StartTime": 3.3,
    "EndTime": 4.3,
    "Fare": 32.0
  },
  {
    "Name": "IndiGo",
    "Code": "IndiGo0201",
    "StartTime": 4.45,
    "EndTime": 5.45,
    "Fare": 55.0
  },
  {
    "Name": "KingFisher",
    "Code": "K923892",
    "StartTime": 6.0,
    "EndTime": 7.0,
    "Fare": 66.0
  },
  {
    "Name": "SpiceJet",
    "Code": "Spice02034",
    "StartTime": 6.3,
    "EndTime": 7.3,
    "Fare": 77.0
  },
  {
    "Name": "Air India",
    "Code": "Air03030",
    "StartTime": 7.3,
    "EndTime": 8.3,
    "Fare": 88.0
  },
  {
    "Name": "EasyJet",
    "Code": "Easy3041",
    "StartTime": 8.13,
    "EndTime": 9.15,
    "Fare": 99.0
  },
  {
    "Name": "EasyJet",
    "Code": "Easy5656",
    "StartTime": 10.0,
    "EndTime": 11.0,
    "Fare": 45.0
  },
  {
    "Name": "Jet",
    "Code": "Jet77",
    "StartTime": 11.3,
    "EndTime": 12.3,
    "Fare": 75.0
  },
  {
    "Name": "SpiceJet",
    "Code": "Spmckd",
    "StartTime": 15.0,
    "EndTime": 16.1,
    "Fare": 68.0
  },
  {
    "Name": "Air India",
    "Code": "Airkmdkv",
    "StartTime": 4.0,
    "EndTime": 5.0,
    "Fare": 43.0
  },
  {
    "Name": "EasyJet",
    "Code": "East876w",
    "StartTime": 3.0,
    "EndTime": 4.0,
    "Fare": 34.0
  },
  {
    "Name": "Jet",
    "Code": "Jet939",
    "StartTime": 8.0,
    "EndTime": 9.0,
    "Fare": 66.0
  },
  {
    "Name": "SpiceJet",
    "Code": "Spice2022",
    "StartTime": 12.0,
    "EndTime": 13.0,
    "Fare": 66.0
  },
  {
    "Name": "Air India",
    "Code": "Air0220",
    "StartTime": 10.0,
    "EndTime": 11.0,
    "Fare": 88.0
  },
  {
    "Name": "EasyJet",
    "Code": "Easy3930",
    "StartTime": 22.0,
    "EndTime": 23.0,
    "Fare": 32.0
  }
]